<svg xmlns="http://www.w3.org/2000/svg" width="19.325" height="18.842" viewBox="0 0 19.325 18.842">
  <path id="_2-item-icon" data-name="2-item-icon" d="M9.73,3h3.865a7.73,7.73,0,1,1,0,15.46v3.382C8.764,19.909,2,17.011,2,10.73A7.73,7.73,0,0,1,9.73,3Zm1.932,13.527h1.932a5.8,5.8,0,1,0,0-11.595H9.73a5.8,5.8,0,0,0-5.8,5.8c0,3.488,2.379,5.765,7.73,8.194Z" transform="translate(-2 -3)" fill="#82919b"/>
</svg>
