<svg xmlns="http://www.w3.org/2000/svg" width="14.405" height="13.685" viewBox="0 0 14.405 13.685">
  <path id="Icon_Camera" data-name="Icon Camera" d="M248,746.881a.723.723,0,0,1,.714-.721h12.977a.716.716,0,0,1,.714.721v10.084a.723.723,0,0,1-.714.72H248.714a.715.715,0,0,1-.275-.056.718.718,0,0,1-.387-.39.71.71,0,0,1-.053-.275Zm1.441.72v8.644h11.525V747.6Zm7.2,6.483a2.162,2.162,0,1,0-1.528-.633A2.16,2.16,0,0,0,256.644,754.084Zm0,1.441a3.6,3.6,0,1,1,2.546-1.056A3.6,3.6,0,0,1,256.644,755.525ZM249.441,744h4.322v1.441h-4.322Z" transform="translate(-248 -744)" fill="#c2c2c2"/>
</svg>
