<svg xmlns="http://www.w3.org/2000/svg" width="17.143" height="17.143" viewBox="0 0 17.143 17.143">
  <g id="home--menu-icon" transform="translate(-3.429 -3.429)">
    <g id="home" transform="translate(3.429 3.429)">
      <path id="Shape" d="M13.809,17.143H10.953a.477.477,0,0,1-.477-.476V10.953A.477.477,0,0,0,10,10.476H7.143a.477.477,0,0,0-.476.477v5.714a.477.477,0,0,1-.476.476H3.333A2.383,2.383,0,0,1,.953,14.762V7.368l-.174.143a.477.477,0,0,1-.67-.065.476.476,0,0,1,.065-.67L8.269.109a.476.476,0,0,1,.606,0l8.095,6.667a.476.476,0,0,1-.3.844.478.478,0,0,1-.3-.108l-.174-.143v7.394A2.384,2.384,0,0,1,13.809,17.143ZM7.143,9.524H10a1.43,1.43,0,0,1,1.429,1.429v5.238h2.381a1.43,1.43,0,0,0,1.429-1.429v-8.1a.516.516,0,0,1,.006-.078l-6.673-5.5L1.9,6.589a.514.514,0,0,1,.006.078v8.1a1.43,1.43,0,0,0,1.429,1.429H5.714V10.953A1.43,1.43,0,0,1,7.143,9.524Z" transform="translate(0 0)"/>
    </g>
  </g>
</svg>
