<svg xmlns="http://www.w3.org/2000/svg" width="14.83" height="16.478" viewBox="0 0 14.83 16.478">
  <g id="log-out-icon" transform="translate(56.83 224.478) rotate(180)">
    <path id="Path_2117" data-name="Path 2117" d="M16.943.824v14.83a.778.778,0,0,1-.824.824H12V14.83h3.3V1.648H12V0h4.12A.778.778,0,0,1,16.943.824Z" transform="translate(39.887 208)" fill="#2b2b2b" opacity="0.5"/>
    <path id="Path_2118" data-name="Path 2118" d="M5.191,4.247a.8.8,0,0,0,0,1.153L7.909,8.119H.824A.778.778,0,0,0,0,8.943a.778.778,0,0,0,.824.824H7.909L5.191,12.486A.816.816,0,0,0,6.344,13.64l4.12-4.12a.8.8,0,0,0,0-1.153l-4.12-4.12A.8.8,0,0,0,5.191,4.247Z" transform="translate(42 207.296)" fill="#2b2b2b"/>
  </g>
</svg>
