<svg xmlns="http://www.w3.org/2000/svg" xmlns:xlink="http://www.w3.org/1999/xlink" width="424.322" height="331.989" viewBox="0 0 424.322 331.989">
  <defs>
    <filter id="Path_2285" x="0" y="15" width="424.322" height="316.989" filterUnits="userSpaceOnUse">
      <feOffset dx="5" dy="3" input="SourceAlpha"/>
      <feGaussianBlur stdDeviation="3" result="blur"/>
      <feFlood flood-opacity="0.776"/>
      <feComposite operator="in" in2="blur"/>
      <feComposite in="SourceGraphic"/>
    </filter>
    <filter id="Path_2284" x="0" y="0" width="424.322" height="316.989" filterUnits="userSpaceOnUse">
      <feOffset dx="5" dy="3" input="SourceAlpha"/>
      <feGaussianBlur stdDeviation="3" result="blur-2"/>
      <feFlood flood-opacity="0.776"/>
      <feComposite operator="in" in2="blur-2"/>
      <feComposite in="SourceGraphic"/>
    </filter>
  </defs>
  <g id="Group_5732" data-name="Group 5732" transform="translate(473.756 -1134.506)">
    <g transform="matrix(1, 0, 0, 1, -473.76, 1134.51)" filter="url(#Path_2285)">
      <path id="Path_2285-2" data-name="Path 2285" d="M412.874,368.073c20.3,7.067,41.762,12.984,63.668,12.231,32.23-1.085,63.1-17.671,78.264-42.026,12.848-20.632,10.261-21.155,13.883-66.05,2.27-39.368,3.217-28.063,4.386-62.718,2.38-26.941,2.27-34.976,3.5-50,.974-16.445,1.257-15.5,1.855-26.532-30.96-2.953-25.188-1.761-65.632-4.589-41.785-3.374-73.355-5.472-163.842-10.454-37.83-4.023-22.559-2.426-66.5-4.65-57.321-4.856-33.714-2.812-78.476-5.488-1.652,23.627-2.461,47.313-5.075,72.569-3.894,55.692-5.623,68.291-8.733,124.886,13.265,4.319,27.668,8.5,59.259,13.286,16.044,2.433,33.485,3.6,50.594,6.148,13.207,1.97,26.286,4.833,38.032,9.876C363.349,345.44,386.358,358.84,412.874,368.073Z" transform="translate(-193.23 -46.19) rotate(-4)" fill="#009ade" stroke="#000" stroke-width="0"/>
    </g>
    <g transform="matrix(1, 0, 0, 1, -473.76, 1134.51)" filter="url(#Path_2284)">
      <path id="Path_2284-2" data-name="Path 2284" d="M412.874,368.073c20.3,7.067,41.762,12.984,63.668,12.231,32.23-1.085,63.1-17.671,78.264-42.026,12.848-20.632,10.261-21.155,13.883-66.05,2.27-39.368,3.217-28.063,4.386-62.718,2.38-26.941,2.27-34.976,3.5-50,.974-16.445,1.257-15.5,1.855-26.532-30.96-2.953-25.188-1.761-65.632-4.589-41.785-3.374-73.355-5.472-163.842-10.454-37.83-4.023-22.559-2.426-66.5-4.65-57.321-4.856-33.714-2.812-78.476-5.488-1.652,23.627-2.461,47.313-5.075,72.569-3.894,55.692-5.623,68.291-8.733,124.886,13.265,4.319,27.668,8.5,59.259,13.286,16.044,2.433,33.485,3.6,50.594,6.148,13.207,1.97,26.286,4.833,38.032,9.876C363.349,345.44,386.358,358.84,412.874,368.073Z" transform="translate(-193.23 -61.19) rotate(-4)" fill="#2e3a98" stroke="#000" stroke-width="0"/>
    </g>
  </g>
</svg>
