<svg xmlns="http://www.w3.org/2000/svg" width="16.245" height="16.246" viewBox="0 0 16.245 16.246">
  <g id="pagos-icon" transform="translate(-3.429 -3.429)">
    <g id="price-tag" transform="translate(3.429 3.429)">
      <path id="Shape" d="M9.474,16.246a2.6,2.6,0,0,1-1.851-.767L.132,7.988A.45.45,0,0,1,0,7.67V2.256A2.258,2.258,0,0,1,2.256,0H7.67a.45.45,0,0,1,.319.132l7.491,7.491a2.619,2.619,0,0,1,0,3.7l-4.156,4.156A2.6,2.6,0,0,1,9.474,16.246ZM2.256.9A1.355,1.355,0,0,0,.9,2.256V7.482l7.359,7.359a1.714,1.714,0,0,0,2.425,0l4.156-4.156a1.716,1.716,0,0,0,0-2.425L7.482.9ZM4.511,6.316a1.8,1.8,0,1,1,1.8-1.8A1.806,1.806,0,0,1,4.511,6.316Zm0-2.707a.9.9,0,1,0,.9.9A.9.9,0,0,0,4.511,3.609Z" transform="translate(0 0)"/>
    </g>
  </g>
</svg>
