<svg id="Icons_Line_Home_Copy_5" data-name="Icons / Line / Home Copy 5" xmlns="http://www.w3.org/2000/svg" width="24" height="24" viewBox="0 0 24 24">
  <rect id="Icons_Line_Home_Copy_5_background" data-name="Icons / Line / Home Copy 5 background" width="24" height="24" fill="rgba(0,0,0,0)"/>
  <g id="cog" transform="translate(3.277 2.571)">
    <path id="Shape" d="M9.457,18.857H7.988a1.411,1.411,0,0,1-1.342-.967L6.2,16.537a7.487,7.487,0,0,1-2.363-1.366l-1.4.287a1.384,1.384,0,0,1-.284.029,1.418,1.418,0,0,1-1.224-.707L.19,13.507a1.414,1.414,0,0,1,.167-1.646L1.3,10.794a7.61,7.61,0,0,1,0-2.73L.357,7A1.411,1.411,0,0,1,.19,5.351L.925,4.078a1.419,1.419,0,0,1,1.224-.707,1.384,1.384,0,0,1,.284.029l1.4.286A7.518,7.518,0,0,1,6.2,2.32L6.646.967A1.411,1.411,0,0,1,7.988,0h1.47A1.411,1.411,0,0,1,10.8.967L11.25,2.32a7.482,7.482,0,0,1,2.363,1.366l1.4-.286a1.384,1.384,0,0,1,.284-.029,1.417,1.417,0,0,1,1.224.707l.735,1.273A1.413,1.413,0,0,1,17.089,7l-.947,1.068a7.657,7.657,0,0,1,0,2.73l.947,1.067a1.416,1.416,0,0,1,.167,1.646l-.735,1.272a1.416,1.416,0,0,1-1.224.707,1.384,1.384,0,0,1-.284-.029l-1.4-.287a7.48,7.48,0,0,1-2.363,1.366L10.8,17.89A1.411,1.411,0,0,1,9.457,18.857ZM3.968,14.191a.463.463,0,0,1,.316.123,6.574,6.574,0,0,0,2.428,1.4.474.474,0,0,1,.3.3l.525,1.574a.472.472,0,0,0,.447.322h1.47a.471.471,0,0,0,.447-.322l.525-1.574a.474.474,0,0,1,.3-.3,6.644,6.644,0,0,0,2.428-1.4.463.463,0,0,1,.316-.123.48.48,0,0,1,.095.009l1.629.333a.48.48,0,0,0,.095.01.473.473,0,0,0,.408-.236l.734-1.273a.471.471,0,0,0-.056-.548l-1.1-1.242a.468.468,0,0,1-.108-.413,6.683,6.683,0,0,0,0-2.806.469.469,0,0,1,.108-.413l1.1-1.243a.47.47,0,0,0,.056-.548L15.7,4.549a.474.474,0,0,0-.409-.235.481.481,0,0,0-.094.009l-1.629.333a.48.48,0,0,1-.095.009.468.468,0,0,1-.316-.122,6.623,6.623,0,0,0-2.428-1.4.477.477,0,0,1-.3-.3L9.9,1.265A.471.471,0,0,0,9.457.943H7.988a.472.472,0,0,0-.447.322L7.016,2.84a.477.477,0,0,1-.3.3,6.553,6.553,0,0,0-2.428,1.4.468.468,0,0,1-.316.122.48.48,0,0,1-.095-.009L2.244,4.323a.473.473,0,0,0-.5.226L1.006,5.822a.472.472,0,0,0,.056.548l1.1,1.243a.474.474,0,0,1,.108.413,6.65,6.65,0,0,0,0,2.806.473.473,0,0,1-.108.413l-1.1,1.242a.473.473,0,0,0-.056.548l.735,1.273a.467.467,0,0,0,.5.226L3.873,14.2A.48.48,0,0,1,3.968,14.191ZM8.723,13.2a3.772,3.772,0,1,1,3.771-3.772A3.776,3.776,0,0,1,8.723,13.2Zm0-6.6a2.828,2.828,0,1,0,2.828,2.828A2.832,2.832,0,0,0,8.723,6.6Z" transform="translate(0 0)"/>
  </g>
</svg>
